"Jahr";"Stadt";"jan";"feb";"mar";"apr";"mai";"jun";"jul";"aug";"sep";"oct";"nov";"dec"
2012;"Zwettl";1,00;2,00;4,00;8,00;12,00;18,00;21,00;15,00;18,00;15,00;7,00;1,00
2013;"Krems";1,10;3,50;6,90;8,90;15,00;19,00;21,50;22,70;20,00;21,70;22,80;4,00
2013;"Zwettl";0,70;2,20;6,90;8,00;12,00;13,00;20,00;22,00;18,70;15,00;8,00;3,00
2014;"Krems";1,20;3,50;6,70;8,90;13,70;18,70;22,30;24,40;19,90;15,00;8,30;2,00
2014;"Zwettl";0,40;2,00;6,70;7,00;12,00;14,00;19,80;21,50;19,90;16,70;7,50;1,90
